(export (version D)
  (design
    (source /home/zaubentrucker/Workspace/BeepBoxCpp/pcb/button_connector_front/button_connector_front.sch)
    (date "Mi 03 Apr 2019 17:36:29 CEST")
    (tool "Eeschema 5.1.0-060a0da~80~ubuntu18.04.1")
    (sheet (number 1) (name /) (tstamps /)
      (title_block
        (title)
        (company)
        (rev)
        (date)
        (source button_connector_front.sch)
        (comment (number 1) (value ""))
        (comment (number 2) (value ""))
        (comment (number 3) (value ""))
        (comment (number 4) (value "")))))
  (components
    (comp (ref SW1)
      (value SW_Push)
      (footprint Button_Switch_Keyboard:SW_Cherry_MX_1.00u_Plate)
      (datasheet ~)
      (libsource (lib Switch) (part SW_Push) (description "Push button switch, generic, two pins"))
      (sheetpath (names /) (tstamps /))
      (tstamp 5CA4D926))
    (comp (ref SW2)
      (value SW_Push)
      (footprint Button_Switch_Keyboard:SW_Cherry_MX_1.00u_Plate)
      (datasheet ~)
      (libsource (lib Switch) (part SW_Push) (description "Push button switch, generic, two pins"))
      (sheetpath (names /) (tstamps /))
      (tstamp 5CA4DCD8))
    (comp (ref J2)
      (value Conn_01x02_Male)
      (footprint Connector_PinHeader_2.54mm:PinHeader_1x02_P2.54mm_Vertical_SMD_Pin1Left)
      (datasheet ~)
      (libsource (lib Connector) (part Conn_01x02_Male) (description "Generic connector, single row, 01x02, script generated (kicad-library-utils/schlib/autogen/connector/)"))
      (sheetpath (names /) (tstamps /))
      (tstamp 5CA4E45E))
    (comp (ref J1)
      (value Conn_01x02_Male)
      (footprint Connector_PinHeader_2.54mm:PinHeader_1x02_P2.54mm_Vertical_SMD_Pin1Left)
      (datasheet ~)
      (libsource (lib Connector) (part Conn_01x02_Male) (description "Generic connector, single row, 01x02, script generated (kicad-library-utils/schlib/autogen/connector/)"))
      (sheetpath (names /) (tstamps /))
      (tstamp 5CA4EACF)))
  (libparts
    (libpart (lib Connector) (part Conn_01x02_Male)
      (description "Generic connector, single row, 01x02, script generated (kicad-library-utils/schlib/autogen/connector/)")
      (docs ~)
      (footprints
        (fp Connector*:*_1x??_*))
      (fields
        (field (name Reference) J)
        (field (name Value) Conn_01x02_Male))
      (pins
        (pin (num 1) (name Pin_1) (type passive))
        (pin (num 2) (name Pin_2) (type passive))))
    (libpart (lib Switch) (part SW_Push)
      (description "Push button switch, generic, two pins")
      (docs ~)
      (fields
        (field (name Reference) SW)
        (field (name Value) SW_Push))
      (pins
        (pin (num 1) (name 1) (type passive))
        (pin (num 2) (name 2) (type passive)))))
  (libraries
    (library (logical Connector)
      (uri /usr/share/kicad/library/Connector.lib))
    (library (logical Switch)
      (uri /usr/share/kicad/library/Switch.lib)))
  (nets
    (net (code 1) (name GND)
      (node (ref SW1) (pin 2))
      (node (ref SW2) (pin 1))
      (node (ref J2) (pin 1))
      (node (ref J1) (pin 2)))
    (net (code 2) (name "Net-(J1-Pad1)")
      (node (ref J1) (pin 1))
      (node (ref SW1) (pin 1)))
    (net (code 3) (name "Net-(J2-Pad2)")
      (node (ref J2) (pin 2))
      (node (ref SW2) (pin 2)))))