EESchema Schematic File Version 4
EELAYER 29 0
EELAYER END
$Descr A4 11693 8268
encoding utf-8
Sheet 1 1
Title ""
Date ""
Rev ""
Comp ""
Comment1 ""
Comment2 ""
Comment3 ""
Comment4 ""
$EndDescr
$Comp
L Switch:SW_Push SW1
U 1 1 5CA4D926
P 4000 3050
F 0 "SW1" H 4000 3335 50  0000 C CNN
F 1 "SW_Push" H 4000 3244 50  0000 C CNN
F 2 "Button_Switch_Keyboard:SW_Cherry_MX_1.00u_Plate" H 4000 3250 50  0001 C CNN
F 3 "~" H 4000 3250 50  0001 C CNN
	1    4000 3050
	1    0    0    -1  
$EndComp
$Comp
L Switch:SW_Push SW2
U 1 1 5CA4DCD8
P 4600 3050
F 0 "SW2" H 4600 3335 50  0000 C CNN
F 1 "SW_Push" H 4600 3244 50  0000 C CNN
F 2 "Button_Switch_Keyboard:SW_Cherry_MX_1.00u_Plate" H 4600 3250 50  0001 C CNN
F 3 "~" H 4600 3250 50  0001 C CNN
	1    4600 3050
	1    0    0    -1  
$EndComp
$Comp
L Connector:Conn_01x04_Male J1
U 1 1 5CA553EE
P 4250 4100
F 0 "J1" V 4404 3812 50  0000 R CNN
F 1 "Conn_01x04_Male" V 4313 3812 50  0000 R CNN
F 2 "Connector_PinHeader_2.54mm:PinHeader_1x04_P2.54mm_Vertical_SMD_Pin1Right" H 4250 4100 50  0001 C CNN
F 3 "~" H 4250 4100 50  0001 C CNN
	1    4250 4100
	0    -1   -1   0   
$EndComp
Wire Wire Line
	4150 3900 4150 3550
Wire Wire Line
	4150 3550 3800 3550
Wire Wire Line
	3800 3550 3800 3450
Wire Wire Line
	4250 3050 4200 3050
Wire Wire Line
	4350 3900 4350 3450
Wire Wire Line
	4350 3050 4400 3050
$Comp
L power:GND #PWR0101
U 1 1 5CA57150
P 3800 3450
F 0 "#PWR0101" H 3800 3200 50  0001 C CNN
F 1 "GND" V 3805 3322 50  0000 R CNN
F 2 "" H 3800 3450 50  0001 C CNN
F 3 "" H 3800 3450 50  0001 C CNN
	1    3800 3450
	0    1    1    0   
$EndComp
Connection ~ 3800 3450
Wire Wire Line
	3800 3450 3800 3350
$Comp
L power:GND #PWR0102
U 1 1 5CA577EE
P 4350 3450
F 0 "#PWR0102" H 4350 3200 50  0001 C CNN
F 1 "GND" V 4355 3322 50  0000 R CNN
F 2 "" H 4350 3450 50  0001 C CNN
F 3 "" H 4350 3450 50  0001 C CNN
	1    4350 3450
	0    -1   -1   0   
$EndComp
Connection ~ 4350 3450
Wire Wire Line
	4350 3450 4350 3350
$Comp
L power:PWR_FLAG #FLG0101
U 1 1 5CA57D77
P 4350 3350
F 0 "#FLG0101" H 4350 3425 50  0001 C CNN
F 1 "PWR_FLAG" V 4350 3478 50  0000 L CNN
F 2 "" H 4350 3350 50  0001 C CNN
F 3 "~" H 4350 3350 50  0001 C CNN
	1    4350 3350
	0    1    1    0   
$EndComp
Connection ~ 4350 3350
Wire Wire Line
	4350 3350 4350 3050
$Comp
L power:PWR_FLAG #FLG0102
U 1 1 5CA57EF7
P 3800 3350
F 0 "#FLG0102" H 3800 3425 50  0001 C CNN
F 1 "PWR_FLAG" V 3800 3477 50  0000 L CNN
F 2 "" H 3800 3350 50  0001 C CNN
F 3 "~" H 3800 3350 50  0001 C CNN
	1    3800 3350
	0    -1   -1   0   
$EndComp
Connection ~ 3800 3350
Wire Wire Line
	3800 3350 3800 3050
Wire Wire Line
	4800 3050 4900 3050
Wire Wire Line
	4900 3050 4900 3550
Wire Wire Line
	4450 3900 4450 3700
Wire Wire Line
	4450 3700 4250 3700
Wire Wire Line
	4250 3700 4250 3050
Wire Wire Line
	4250 3900 4250 3850
Wire Wire Line
	4250 3850 4550 3850
Wire Wire Line
	4550 3850 4550 3550
Wire Wire Line
	4550 3550 4900 3550
$EndSCHEMATC
