EESchema Schematic File Version 4
LIBS:power
LIBS:74xx
LIBS:mainboard-cache
EELAYER 29 0
EELAYER END
$Descr A4 11693 8268
encoding utf-8
Sheet 1 1
Title ""
Date ""
Rev ""
Comp ""
Comment1 ""
Comment2 ""
Comment3 ""
Comment4 ""
$EndDescr
$Comp
L Connector:Conn_01x15_Female J1
U 1 1 5C790B6F
P 3750 4450
F 0 "J1" H 3600 5350 50  0000 L CNN
F 1 "NodeMCU_left" H 3400 5250 50  0000 L CNN
F 2 "Connector_PinSocket_2.54mm:PinSocket_1x15_P2.54mm_Vertical" H 3750 4450 50  0001 C CNN
F 3 "~" H 3750 4450 50  0001 C CNN
	1    3750 4450
	1    0    0    -1  
$EndComp
$Comp
L Connector:Conn_01x15_Female J2
U 1 1 5C790C77
P 4600 4450
F 0 "J2" H 4494 5335 50  0000 C CNN
F 1 "NodeMCU_right" H 4500 5250 50  0000 C CNN
F 2 "Connector_PinSocket_2.54mm:PinSocket_1x15_P2.54mm_Vertical" H 4600 4450 50  0001 C CNN
F 3 "~" H 4600 4450 50  0001 C CNN
	1    4600 4450
	-1   0    0    -1  
$EndComp
$Comp
L power:+3V3 #PWR0101
U 1 1 5C799DEB
P 5100 5150
F 0 "#PWR0101" H 5100 5000 50  0001 C CNN
F 1 "+3V3" V 5115 5278 50  0000 L CNN
F 2 "" H 5100 5150 50  0001 C CNN
F 3 "" H 5100 5150 50  0001 C CNN
	1    5100 5150
	0    1    1    0   
$EndComp
$Comp
L power:GND #PWR0102
U 1 1 5C799EBE
P 5550 5050
F 0 "#PWR0102" H 5550 4800 50  0001 C CNN
F 1 "GND" V 5555 4922 50  0000 R CNN
F 2 "" H 5550 5050 50  0001 C CNN
F 3 "" H 5550 5050 50  0001 C CNN
	1    5550 5050
	0    -1   -1   0   
$EndComp
Wire Wire Line
	4450 7700 550  7700
Text Notes 3400 6900 0    50   ~ 0
Soof\nwas \nhere
Text GLabel 4800 4750 2    50   Input ~ 0
D4
Text GLabel 4800 4350 2    50   Input ~ 0
D18
Text GLabel 4800 4250 2    50   Input ~ 0
D19
Text GLabel 4800 4150 2    50   Input ~ 0
D21
Text GLabel 4800 3850 2    50   Input ~ 0
D22
Text GLabel 4800 3750 2    50   Input ~ 0
D23
Text GLabel 3550 4550 0    50   Input ~ 0
D26
Text GLabel 3550 4250 0    50   Input ~ 0
D32
Text GLabel 3550 4050 0    50   Input ~ 0
D34
Text GLabel 3550 4450 0    50   Input ~ 0
D25
Text GLabel 3550 4150 0    50   Input ~ 0
D35
NoConn ~ 4800 4650
NoConn ~ 4800 4550
NoConn ~ 4800 4050
NoConn ~ 4800 3950
NoConn ~ 3550 3750
NoConn ~ 3550 3850
NoConn ~ 3550 3950
$Comp
L power:+9V #PWR0113
U 1 1 5C96CDEF
P 3250 5150
F 0 "#PWR0113" H 3250 5000 50  0001 C CNN
F 1 "+9V" H 3250 5300 50  0000 C CNN
F 2 "" H 3250 5150 50  0001 C CNN
F 3 "" H 3250 5150 50  0001 C CNN
	1    3250 5150
	-1   0    0    1   
$EndComp
$Comp
L power:GND #PWR0114
U 1 1 5C96EC08
P 3250 5050
F 0 "#PWR0114" H 3250 4800 50  0001 C CNN
F 1 "GND" H 3255 4877 50  0000 C CNN
F 2 "" H 3250 5050 50  0001 C CNN
F 3 "" H 3250 5050 50  0001 C CNN
	1    3250 5050
	-1   0    0    1   
$EndComp
$Comp
L power:PWR_FLAG #FLG0101
U 1 1 5C973FC9
P 2300 5600
F 0 "#FLG0101" H 2300 5675 50  0001 C CNN
F 1 "PWR_FLAG" V 2300 5728 50  0000 L CNN
F 2 "" H 2300 5600 50  0001 C CNN
F 3 "~" H 2300 5600 50  0001 C CNN
	1    2300 5600
	0    -1   -1   0   
$EndComp
$Comp
L power:PWR_FLAG #FLG0102
U 1 1 5C9740BF
P 3150 5600
F 0 "#FLG0102" H 3150 5675 50  0001 C CNN
F 1 "PWR_FLAG" V 3150 5728 50  0000 L CNN
F 2 "" H 3150 5600 50  0001 C CNN
F 3 "~" H 3150 5600 50  0001 C CNN
	1    3150 5600
	0    1    1    0   
$EndComp
$Comp
L power:PWR_FLAG #FLG0103
U 1 1 5C97434D
P 4950 5150
F 0 "#FLG0103" H 4950 5225 50  0001 C CNN
F 1 "PWR_FLAG" H 4950 5324 50  0000 C CNN
F 2 "" H 4950 5150 50  0001 C CNN
F 3 "~" H 4950 5150 50  0001 C CNN
	1    4950 5150
	-1   0    0    1   
$EndComp
Connection ~ 4950 5150
Wire Wire Line
	4950 5150 5100 5150
$Comp
L Connector:Conn_01x02_Female J5
U 1 1 5C97441E
P 3150 5850
F 0 "J5" V 3300 5700 50  0000 R CNN
F 1 "BAT_PINS" V 3200 5700 50  0000 R CNN
F 2 "Connector_PinHeader_2.54mm:PinHeader_1x02_P2.54mm_Horizontal" H 3150 5850 50  0001 C CNN
F 3 "~" H 3150 5850 50  0001 C CNN
	1    3150 5850
	0    1    1    0   
$EndComp
Wire Wire Line
	2300 5650 2300 5600
Wire Wire Line
	3150 5600 3150 5650
Connection ~ 3250 5150
Connection ~ 3250 5050
Wire Wire Line
	3550 5150 3250 5150
Text GLabel 3550 4350 0    50   Input ~ 0
D33
Wire Wire Line
	3250 5050 3150 5050
$Comp
L Jumper:Jumper_2_Bridged JP1
U 1 1 5C8232B9
P 2500 5650
F 0 "JP1" H 2650 5850 50  0000 C CNN
F 1 "SWITCH_PINS" H 2800 5750 50  0000 C CNN
F 2 "Connector_PinHeader_2.54mm:PinHeader_1x02_P2.54mm_Horizontal" H 2500 5650 50  0001 C CNN
F 3 "~" H 2500 5650 50  0001 C CNN
	1    2500 5650
	-1   0    0    1   
$EndComp
Wire Wire Line
	5550 5050 4800 5050
Wire Wire Line
	2300 5600 2300 5150
Wire Wire Line
	3250 5150 2300 5150
Connection ~ 2300 5600
Wire Wire Line
	3150 5600 3150 5050
Connection ~ 3150 5600
Wire Wire Line
	3050 5650 2700 5650
Wire Wire Line
	3250 5050 3550 5050
Wire Wire Line
	4800 5150 4950 5150
$Comp
L Connector:Conn_01x06_Female J4
U 1 1 5D175FEA
P 3450 1800
F 0 "J4" H 3478 1776 50  0000 L CNN
F 1 "DAC Connector" H 3478 1685 50  0000 L CNN
F 2 "Connector_PinSocket_2.54mm:PinSocket_1x06_P2.54mm_Vertical" H 3450 1800 50  0001 C CNN
F 3 "~" H 3450 1800 50  0001 C CNN
	1    3450 1800
	-1   0    0    1   
$EndComp
$Comp
L power:GND #PWR0104
U 1 1 5D1A32BB
P 3650 1600
F 0 "#PWR0104" H 3650 1350 50  0001 C CNN
F 1 "GND" V 3655 1472 50  0000 R CNN
F 2 "" H 3650 1600 50  0001 C CNN
F 3 "" H 3650 1600 50  0001 C CNN
	1    3650 1600
	0    -1   -1   0   
$EndComp
$Comp
L power:GND #PWR0105
U 1 1 5D1AB833
P 3650 2000
F 0 "#PWR0105" H 3650 1750 50  0001 C CNN
F 1 "GND" V 3655 1872 50  0000 R CNN
F 2 "" H 3650 2000 50  0001 C CNN
F 3 "" H 3650 2000 50  0001 C CNN
	1    3650 2000
	0    -1   -1   0   
$EndComp
NoConn ~ 6550 3800
Text GLabel 3550 4650 0    50   Input ~ 0
D27
Text GLabel 3550 4750 0    50   Input ~ 0
D14
$Comp
L power:GND #PWR0107
U 1 1 5D1FDE89
P 4450 2650
F 0 "#PWR0107" H 4450 2400 50  0001 C CNN
F 1 "GND" V 4455 2522 50  0000 R CNN
F 2 "" H 4450 2650 50  0001 C CNN
F 3 "" H 4450 2650 50  0001 C CNN
	1    4450 2650
	0    -1   -1   0   
$EndComp
Text GLabel 6000 4350 1    50   Input ~ 0
D14
$Comp
L Connector:Conn_01x03_Male J7
U 1 1 5D26CD5D
P 6000 4550
F 0 "J7" V 6062 4694 50  0000 L CNN
F 1 "ANALOG_1" V 6153 4694 50  0000 L CNN
F 2 "Connector_PinHeader_2.54mm:PinHeader_1x03_P2.54mm_Horizontal" H 6000 4550 50  0001 C CNN
F 3 "~" H 6000 4550 50  0001 C CNN
	1    6000 4550
	0    -1   -1   0   
$EndComp
$Comp
L power:+3.3V #PWR0108
U 1 1 5D27A435
P 6100 4350
F 0 "#PWR0108" H 6100 4200 50  0001 C CNN
F 1 "+3.3V" H 6115 4523 50  0000 C CNN
F 2 "" H 6100 4350 50  0001 C CNN
F 3 "" H 6100 4350 50  0001 C CNN
	1    6100 4350
	1    0    0    -1  
$EndComp
$Comp
L power:GND #PWR0109
U 1 1 5D27AE61
P 5900 4350
F 0 "#PWR0109" H 5900 4100 50  0001 C CNN
F 1 "GND" H 5905 4177 50  0000 C CNN
F 2 "" H 5900 4350 50  0001 C CNN
F 3 "" H 5900 4350 50  0001 C CNN
	1    5900 4350
	-1   0    0    1   
$EndComp
$Comp
L Connector:Conn_01x06_Male J6
U 1 1 5D29B930
P 4250 2850
F 0 "J6" H 4358 3231 50  0000 C CNN
F 1 "Right Buttons" H 4400 3150 50  0000 C CNN
F 2 "Connector_PinHeader_2.54mm:PinHeader_1x06_P2.54mm_Horizontal" H 4250 2850 50  0001 C CNN
F 3 "~" H 4250 2850 50  0001 C CNN
	1    4250 2850
	1    0    0    -1  
$EndComp
$Comp
L Connector:Conn_01x06_Male J3
U 1 1 5D2979D8
P 4050 2950
F 0 "J3" H 4350 2450 50  0000 R CNN
F 1 "Left Buttons" H 4600 2550 50  0000 R CNN
F 2 "Connector_PinHeader_2.54mm:PinHeader_1x06_P2.54mm_Horizontal" H 4050 2950 50  0001 C CNN
F 3 "~" H 4050 2950 50  0001 C CNN
	1    4050 2950
	-1   0    0    1   
$EndComp
Text GLabel 3650 1900 2    50   Input ~ 0
D32
Text GLabel 4450 2750 2    50   Input ~ 0
D23
Text GLabel 4450 2850 2    50   Input ~ 0
D22
Text GLabel 4450 2950 2    50   Input ~ 0
D21
Text GLabel 4450 3050 2    50   Input ~ 0
D19
Text GLabel 4450 3150 2    50   Input ~ 0
D18
Text GLabel 3850 3050 0    50   Input ~ 0
D27
Text GLabel 3850 2950 0    50   Input ~ 0
D26
$Comp
L power:GND #PWR0106
U 1 1 5D1FD943
P 3850 2650
F 0 "#PWR0106" H 3850 2400 50  0001 C CNN
F 1 "GND" V 3855 2522 50  0000 R CNN
F 2 "" H 3850 2650 50  0001 C CNN
F 3 "" H 3850 2650 50  0001 C CNN
	1    3850 2650
	0    1    1    0   
$EndComp
$Comp
L Device:R R1
U 1 1 5D37A2CA
P 4300 1500
F 0 "R1" V 4093 1500 50  0000 C CNN
F 1 "0" V 4184 1500 50  0000 C CNN
F 2 "Resistor_THT:R_Axial_DIN0207_L6.3mm_D2.5mm_P10.16mm_Horizontal" V 4230 1500 50  0001 C CNN
F 3 "~" H 4300 1500 50  0001 C CNN
	1    4300 1500
	0    1    1    0   
$EndComp
$Comp
L power:+3.3V #PWR0103
U 1 1 5D19ECEE
P 4450 1500
F 0 "#PWR0103" H 4450 1350 50  0001 C CNN
F 1 "+3.3V" V 4450 1600 50  0000 L CNN
F 2 "" H 4450 1500 50  0001 C CNN
F 3 "" H 4450 1500 50  0001 C CNN
	1    4450 1500
	0    1    1    0   
$EndComp
Wire Wire Line
	4150 1500 3650 1500
Text GLabel 3850 3150 0    50   Input ~ 0
D4
Text GLabel 3650 1800 2    50   Input ~ 0
D33
Text GLabel 3650 1700 2    50   Input ~ 0
D25
Text GLabel 3850 2750 0    50   Input ~ 0
D34
Text GLabel 3850 2850 0    50   Input ~ 0
D35
NoConn ~ 4800 4850
NoConn ~ 4800 4950
NoConn ~ 3550 4950
NoConn ~ 3550 4850
NoConn ~ 4800 4450
$EndSCHEMATC
